module github.com/gopasspw/gopass

go 1.12

require (
	github.com/alecthomas/binary v0.0.0-20190922233330-fb1b1d9c299c
	github.com/atotto/clipboard v0.1.2
	github.com/blang/semver v0.0.0-20190414182527-1a9109f8c4a1
	github.com/cenkalti/backoff v2.2.1+incompatible
	github.com/cpuguy83/go-md2man/v2 v2.0.0 // indirect
	github.com/davecgh/go-spew v1.1.1 // indirect
	github.com/dominikschulz/github-releases v0.0.3
	github.com/fatih/color v1.9.0
	github.com/godbus/dbus v0.0.0-20190623212516-8a1682060722
	github.com/gokyle/twofactor v1.0.1
	github.com/golang/protobuf v1.4.0
	github.com/google/go-github v17.0.0+incompatible
	github.com/google/go-querystring v1.0.0 // indirect
	github.com/hashicorp/go-multierror v1.1.0
	github.com/hashicorp/golang-lru v0.5.4
	github.com/jsimonetti/pwscheme v0.0.0-20160922125227-76804708ecad
	github.com/kballard/go-shellquote v0.0.0-20180428030007-95032a82bc51
	github.com/kr/text v0.2.0 // indirect
	github.com/martinhoefling/goxkcdpwgen v0.0.0-20190331205820-7dc3d102eca3
	github.com/mattn/go-colorable v0.1.6
	github.com/mitchellh/go-homedir v1.1.0
	github.com/mitchellh/go-ps v1.0.0
	github.com/muesli/crunchy v0.4.0
	github.com/muesli/goprogressbar v0.0.0-20190807022807-e540249d2ac1
	github.com/niemeyer/pretty v0.0.0-20200227124842-a10e7caefd8e // indirect
	github.com/pkg/errors v0.9.1
	github.com/schollz/closestmatch v0.0.0-20190308193919-1fbe626be92e
	github.com/skip2/go-qrcode v0.0.0-20191027152451-9434209cb086
	github.com/stretchr/testify v1.5.1
	github.com/urfave/cli/v2 v2.2.0
	golang.org/x/crypto v0.0.0-20200423211502-4bdfaf469ed5
	golang.org/x/net v0.0.0-20200421231249-e086a090c8fd
	golang.org/x/sys v0.0.0-20200420163511-1957bb5e6d1f
	google.golang.org/protobuf v1.21.0
	gopkg.in/check.v1 v1.0.0-20200227125254-8fa46927fb4f // indirect
	gopkg.in/yaml.v2 v2.2.8
	rsc.io/qr v0.2.0 // indirect
)
